%YAML 1.1
%TAG !u! tag:unity3d.com,2011:
--- !u!1 &8985717075461832476
GameObject:
  m_ObjectHideFlags: 0
  m_CorrespondingSourceObject: {fileID: 0}
  m_PrefabInstance: {fileID: 0}
  m_PrefabAsset: {fileID: 0}
  serializedVersion: 6
  m_Component:
  - component: {fileID: 8985717075461832477}
  - component: {fileID: 8985717075461832478}
  m_Layer: 9
  m_Name: BaseFigure
  m_TagString: Untagged
  m_Icon: {fileID: 0}
  m_NavMeshLayer: 0
  m_StaticEditorFlags: 0
  m_IsActive: 1
--- !u!4 &8985717075461832477
Transform:
  m_ObjectHideFlags: 0
  m_CorrespondingSourceObject: {fileID: 0}
  m_PrefabInstance: {fileID: 0}
  m_PrefabAsset: {fileID: 0}
  m_GameObject: {fileID: 8985717075461832476}
  m_LocalRotation: {x: 0, y: 0, z: 0, w: 1}
  m_LocalPosition: {x: 0, y: 0, z: 0}
  m_LocalScale: {x: 1, y: 1, z: 1}
  m_Children: []
  m_Father: {fileID: 0}
  m_RootOrder: 0
  m_LocalEulerAnglesHint: {x: 0, y: 0, z: 0}
--- !u!114 &8985717075461832478
MonoBehaviour:
  m_ObjectHideFlags: 0
  m_CorrespondingSourceObject: {fileID: 0}
  m_PrefabInstance: {fileID: 0}
  m_PrefabAsset: {fileID: 0}
  m_GameObject: {fileID: 8985717075461832476}
  m_Enabled: 1
  m_EditorHideFlags: 0
  m_Script: {fileID: 11500000, guid: bdbe1f5de75ffcc4eb6828a3fe618b48, type: 3}
  m_Name: 
  m_EditorClassIdentifier: 
  regularCube: {fileID: 400000, guid: 5e34c7fcf7d53ef458e4e8209e016cc8, type: 3}
  centerCube: {fileID: 4199855910767456665, guid: ebdf06264b5e8664cb1fa10155445712,
    type: 3}
  crackedCube: {fileID: 7906499814334503858, guid: c997f20bc815cdd4dade98e5feb24e85,
    type: 3}
  dxInit: 0
  dyInit: 0
  destroyTime: 1
  destroyedCubesPlayer: 0
  totalRegularCubes: 0
  totalGoldCubes: 0
  destroyedRegularCubes: 0
  destroyedGoldCubes: 0
  pit: {x: 7, y: 7, z: 7}
  defaultBaseFigureDiameter: 7
  defaultCenterDiameter: 1
  levelGenerator: {fileID: 0}
